{
  "project_info": {
    "project_number": "403367923148",
    "firebase_url": "https://fizioo-75c07.firebaseio.com",
    "project_id": "fizioo-75c07",
    "storage_bucket": "fizioo-75c07.appspot.com"
  },
  "client": [
    {
      "client_info": {
        "mobilesdk_app_id": "1:403367923148:android:7e8b23c3eed89680",
        "android_client_info": {
          "package_name": "io.cloudx9.fizioo"
        }
      },
      "oauth_client": [
        {
          "client_id": "403367923148-cppulhg2efp63cjuon94rdlud8j7ejad.apps.googleusercontent.com",
          "client_type": 3
        }
      ],
      "api_key": [
        {
          "current_key": "AIzaSyCwnrG24_GJnfe1sI06h-ppOVeaQEbzoEs"
        }
      ],
      "services": {
        "analytics_service": {
          "status": 1
        },
        "appinvite_service": {
          "status": 1,
          "other_platform_oauth_client": []
        },
        "ads_service": {
          "status": 2
        }
      }
    },
    {
      "client_info": {
        "mobilesdk_app_id": "1:403367923148:android:c3ea95d1e990fe14",
        "android_client_info": {
          "package_name": "com.dochajj.provider"
        }
      },
      "oauth_client": [
        {
          "client_id": "403367923148-cppulhg2efp63cjuon94rdlud8j7ejad.apps.googleusercontent.com",
          "client_type": 3
        }
      ],
      "api_key": [
        {
          "current_key": "AIzaSyCwnrG24_GJnfe1sI06h-ppOVeaQEbzoEs"
        }
      ],
      "services": {
        "analytics_service": {
          "status": 1
        },
        "appinvite_service": {
          "status": 1,
          "other_platform_oauth_client": []
        },
        "ads_service": {
          "status": 2
        }
      }
    }
  ],
  "configuration_version": "1"
}